{
  "type": "tab",
  "id": "85ecc008.7a134",
  "label": "Sheet 1",
  "flow": [
    {
      "id": "54337750.abcc88",
      "type": "http in",
      "z": "85ecc008.7a134",
      "name": "GET hello",
      "url": "/hello",
      "method": "get",
      "swaggerDoc": "",
      "x": 209,
      "y": 198,
      "wires": [
        [
          "5614326a.a9ebcc"
        ]
      ]
    },
    {
      "id": "5614326a.a9ebcc",
      "type": "function",
      "z": "85ecc008.7a134",
      "name": "Respond to hello",
      "func": "msg.payload = \"Hello World\";\nreturn msg;",
      "outputs": 1,
      "noerr": 0,
      "x": 435,
      "y": 190,
      "wires": [
        [
          "8bc290c8.743d7"
        ]
      ]
    },
    {
      "id": "8bc290c8.743d7",
      "type": "http response",
      "z": "85ecc008.7a134",
      "name": "",
      "x": 729,
      "y": 172,
      "wires": []
    },
    {
      "id": "54337750.abcc88",
      "type": "http in",
      "z": "85ecc008.7a134",
      "name": "GET hello",
      "url": "/hello",
      "method": "get",
      "swaggerDoc": "",
      "x": 209,
      "y": 198,
      "wires": [
        [
          "5614326a.a9ebcc"
        ]
      ]
    },
    {
      "id": "5614326a.a9ebcc",
      "type": "function",
      "z": "85ecc008.7a134",
      "name": "Respond to hello",
      "func": "msg.payload = \"Hello World\";\nreturn msg;",
      "outputs": 1,
      "noerr": 0,
      "x": 435,
      "y": 190,
      "wires": [
        [
          "8bc290c8.743d7",
          "ddc70ac8.2238f8"
        ]
      ]
    },
    {
      "id": "8bc290c8.743d7",
      "type": "http response",
      "z": "85ecc008.7a134",
      "name": "",
      "x": 729,
      "y": 172,
      "wires": []
    },
    {
      "id": "ddc70ac8.2238f8",
      "type": "debug",
      "z": "85ecc008.7a134",
      "name": "",
      "active": true,
      "console": "false",
      "complete": "false",
      "x": 712,
      "y": 273,
      "wires": []
    },
    {
      "id": "dda7ddac.22582",
      "type": "inject",
      "z": "85ecc008.7a134",
      "name": "",
      "topic": "",
      "payload": "",
      "payloadType": "date",
      "repeat": "",
      "crontab": "",
      "once": false,
      "x": 186,
      "y": 374,
      "wires": [
        [
          "1accc865.e53338",
          "5614326a.a9ebcc"
        ]
      ]
    },
    {
      "id": "1accc865.e53338",
      "type": "debug",
      "z": "85ecc008.7a134",
      "name": "",
      "active": true,
      "console": "false",
      "complete": "false",
      "x": 533,
      "y": 373,
      "wires": []
    },
    {
      "id": "54337750.abcc88",
      "type": "http in",
      "z": "85ecc008.7a134",
      "name": "GET hello",
      "url": "/hello",
      "method": "get",
      "swaggerDoc": "",
      "x": 209,
      "y": 198,
      "wires": [
        [
          "5614326a.a9ebcc"
        ]
      ]
    },
    {
      "id": "5614326a.a9ebcc",
      "type": "function",
      "z": "85ecc008.7a134",
      "name": "Respond to hello",
      "func": "msg.payload = \"Barack Hussein Obama II (US Listeni/bəˈrɑːk huːˈseɪn ɵˈbɑːmə/; born August 4, 1961) is an American politician currently serving as the 44th President of the United States, the first African American to hold the office. Born in Honolulu, Hawaii, Obama is a graduate of Columbia University and Harvard Law School, where he served as president of the Harvard Law Review. He was a community organizer in Chicago before earning his law degree. He worked as a civil rights attorney and taught constitutional law at University of Chicago Law School between 1992 and 2004. He served three terms representing the 13th District in the Illinois Senate from 1997 to 2004, running unsuccessfully for the United States House of Representatives in 2000 against Bobby Rush.In 2004, Obama received national attention during his campaign to represent Illinois in the United States Senate with his victory in the March Democratic Party primary, his keynote address at the Democratic National Convention in July, and his election to the Senate in November. He began his presidential campaign in 2007 and, after a close primary campaign against Hillary Rodham Clinton in 2008, he won sufficient delegates in the Democratic Party primaries to receive the presidential nomination. He then defeated Republican nominee John McCain in the general election, and was inaugurated as president on January 20, 2009. Nine months after his inauguration, Obama was named the 2009 Nobel Peace Prize laureate.\";\nreturn msg;",
      "outputs": 1,
      "noerr": 0,
      "x": 435,
      "y": 190,
      "wires": [
        [
          "8bc290c8.743d7",
          "ddc70ac8.2238f8"
        ]
      ]
    },
    {
      "id": "8bc290c8.743d7",
      "type": "http response",
      "z": "85ecc008.7a134",
      "name": "",
      "x": 729,
      "y": 172,
      "wires": []
    },
    {
      "id": "ddc70ac8.2238f8",
      "type": "debug",
      "z": "85ecc008.7a134",
      "name": "",
      "active": true,
      "console": "false",
      "complete": "false",
      "x": 712,
      "y": 273,
      "wires": []
    },
    {
      "id": "dda7ddac.22582",
      "type": "inject",
      "z": "85ecc008.7a134",
      "name": "",
      "topic": "",
      "payload": "",
      "payloadType": "date",
      "repeat": "",
      "crontab": "",
      "once": false,
      "x": 186,
      "y": 374,
      "wires": [
        [
          "1accc865.e53338",
          "5614326a.a9ebcc"
        ]
      ]
    },
    {
      "id": "1accc865.e53338",
      "type": "debug",
      "z": "85ecc008.7a134",
      "name": "",
      "active": true,
      "console": "false",
      "complete": "false",
      "x": 533,
      "y": 373,
      "wires": []
    }
  ]
}